altgraph==0.16.1
certifi==2018.10.15
chardet==3.0.4
dataclasses==0.6
future==0.17.1
idna==2.7
jupyter-contrib-nbextensions==0.5.0
macholib==1.11
numpy==1.15.4
pandas==0.23.4
pefile==2018.8.8
PyInstaller==3.4
PyQt5==5.11.3
PyQt5-sip==4.19.13
pyqtgraph==0.10.0
python-dateutil==2.7.5
pytz==2018.7
requests==2.20.1
six==1.11.0
untangle==1.1.1
urllib3==1.24.1
